<?xml version="1.0" standalone="no"?>
<!DOCTYPE svg PUBLIC "-//W3C//DTD SVG 1.1//EN" "http://www.w3.org/Graphics/SVG/1.1/DTD/svg11.dtd" >
<svg xmlns="http://www.w3.org/2000/svg">
<metadata>Generated by IcoMoon</metadata>
<defs>
<font id="site_icons" horiz-adv-x="1024">
<font-face units-per-em="1024" ascent="960" descent="-64" />
<missing-glyph horiz-adv-x="1024" />
<glyph unicode="&#x20;" horiz-adv-x="512" d="" />
<glyph unicode="&#xe900;" glyph-name="logo" d="M631.954 149.577c2.926-5.851 5.851-14.629 5.851-20.48 0-35.109-55.589-64.366-125.806-64.366s-125.806 29.257-125.806 64.366c0 5.851 2.926 14.629 5.851 20.48 32.183-26.331 76.069-40.96 119.954-40.96s84.846 14.629 119.954 40.96zM816.274 389.486c2.926 105.326-46.811 125.806-84.846 178.469-29.257 40.96-2.926 105.326-2.926 108.251-2.926 0-52.663-14.629-84.846-61.44-2.926-43.886-26.331-93.623-38.034-117.029 0 0 0 0 0 0s8.777 20.48 11.703 49.737c0 5.851 2.926 11.703 2.926 17.554 2.926 11.703 2.926 23.406 2.926 35.109 2.926 11.703 2.926 20.48 2.926 29.257-2.926 46.811-20.48 90.697-46.811 125.806-20.48 29.257-52.663 55.589-73.143 67.291 2.926-5.851 2.926-14.629 5.851-23.406 5.851-35.109-5.851-61.44-29.257-73.143-46.811-23.406-78.994-64.366-90.697-111.177-2.926-8.777-2.926-17.554-2.926-26.331 0-2.926 0-8.777 0-11.703 0-8.777 0-20.48 0-32.183s2.926-23.406 5.851-35.109c2.926-14.629 5.851-26.331 5.851-26.331s0 0 0 0c-17.554 32.183-29.257 64.366-26.331 105.326 0 11.703 2.926 26.331 5.851 38.034-26.331 20.48-67.291 32.183-67.291 32.183s26.331-38.034 5.851-67.291c-38.034-49.737-96.549-49.737-105.326-175.543-5.851-61.44 32.183-114.103 58.514-140.434h-17.554c-11.703 0-23.406-11.703-23.406-23.406s11.703-23.406 23.406-23.406h26.331c-2.926 8.777-5.851 20.48-5.851 29.257 0 11.703 2.926 23.406 5.851 35.109 5.851 17.554 17.554 35.109 35.109 46.811 0 0 0 0 0 0 2.926 2.926 8.777 5.851 11.703 8.777 26.331 70.217 96.549 122.88 181.394 122.88 81.92 0 152.137-49.737 178.469-117.029 35.109-17.554 61.44-52.663 61.44-93.623 0-11.703-2.926-20.48-5.851-29.257h26.331c11.703 0 23.406 11.703 23.406 23.406s-11.703 23.406-23.406 23.406h-17.554c35.109 29.257 61.44 64.366 64.366 111.177zM643.657 369.006c8.777 0 14.629 0 23.406-2.926-29.257 55.589-87.771 93.623-157.989 93.623s-131.657-38.034-157.989-96.549c8.777 2.926 20.48 5.851 32.183 5.851 32.183 0 58.514-11.703 78.994-35.109 17.554-17.554 26.331-43.886 26.331-70.217 0-52.663-40.96-93.623-90.697-102.4 29.257-23.406 70.217-38.034 111.177-38.034s81.92 14.629 111.177 38.034c-46.811 8.777-84.846 52.663-84.846 102.4 2.926 58.514 49.737 105.326 108.251 105.326zM737.28 266.606c0-49.737-40.96-90.697-93.623-90.697-26.331 0-49.737 11.703-67.291 29.257v0l131.657 125.806c17.554-14.629 29.257-38.034 29.257-64.366zM476.891 266.606c0-49.737-40.96-90.697-93.623-90.697-23.406 0-46.811 8.777-61.44 23.406l131.657 125.806c14.629-14.629 23.406-35.109 23.406-58.514z" />
<glyph unicode="&#xe901;" glyph-name="home" d="M295.497 322.194v-178.469c0-8.777 8.777-17.554 17.554-17.554h137.509c8.777 0 17.554 8.777 17.554 17.554v117.029h87.771v-117.029c0-8.777 8.777-17.554 17.554-17.554h137.509c8.777 0 17.554 8.777 17.554 17.554v178.469l-213.577 225.28-219.429-225.28zM801.646 389.486l-277.943 292.571c-2.926 2.926-8.777 5.851-11.703 5.851-5.851 0-8.777-2.926-11.703-5.851l-277.943-289.646c-5.851-5.851-20.48-40.96-11.703-55.589 8.777-8.777 32.183-17.554 38.034-8.777l260.389 272.091 260.389-275.017c8.777-8.777 29.257-5.851 40.96 5.851 14.629 14.629-2.926 52.663-8.777 58.514z" />
<glyph unicode="&#xe902;" glyph-name="controller" d="M827.977 427.52c-2.926 8.777-26.331 55.589-35.109 64.366 0 0 0 2.926-2.926 2.926 0 0 0 0 0 0-40.96 46.811-119.954 49.737-242.834 55.589v5.851c0 11.703-8.777 20.48-20.48 20.48h-5.851c0 8.777 5.851 23.406 14.629 32.183 23.406 20.48 70.217 23.406 134.583 8.777 61.44-14.629 96.549-11.703 108.251 11.703 23.406 40.96-55.589 119.954-58.514 122.88l-14.629-14.629c29.257-29.257 64.366-78.994 52.663-99.474-2.926-5.851-17.554-17.554-84.846 0-73.143 17.554-125.806 14.629-152.137-11.703-17.554-14.629-20.48-35.109-20.48-46.811h-11.703c-11.703 0-20.48-8.777-20.48-20.48v-5.851c-93.623-5.851-155.063-2.926-204.8-35.109-17.554-11.703-52.663-55.589-61.44-73.143-26.331-38.034-29.257-111.177-2.926-155.063 35.109-61.44 137.509-122.88 175.543-46.811l17.554 29.257 5.851 2.926c20.48 8.777 96.549 43.886 216.503 8.777l29.257-32.183c55.589-93.623 140.434-14.629 175.543 46.811 23.406 29.257 23.406 90.697 8.777 128.731zM359.863 348.526c5.851-5.851 5.851-17.554 0-23.406s-17.554-5.851-23.406 0l-23.406 23.406-23.406-23.406c-8.777-8.777-20.48-8.777-26.331-2.926s-5.851 17.554 0 23.406l23.406 23.406-23.406 26.331c-5.851 5.851-5.851 17.554 0 23.406s17.554 5.851 23.406 0l23.406-23.406 23.406 23.406c5.851 5.851 17.554 5.851 23.406 0s5.851-17.554 0-23.406l-23.406-23.406 26.331-23.406zM488.594 398.263h-40.96c-5.851 0-8.777 5.851-8.777 8.777 0 5.851 5.851 8.777 8.777 8.777h40.96c5.851 0 8.777-5.851 8.777-8.777 2.926-5.851-2.926-8.777-8.777-8.777zM588.069 398.263h-40.96c-5.851 0-8.777 5.851-8.777 8.777 0 5.851 5.851 8.777 8.777 8.777h40.96c5.851 0 8.777-5.851 8.777-8.777 2.926-5.851-2.926-8.777-8.777-8.777zM728.503 436.297c11.703 0 17.554-8.777 17.554-17.554s-8.777-17.554-17.554-17.554-17.554 8.777-17.554 17.554 5.851 17.554 17.554 17.554zM690.469 363.154c-11.703 0-17.554 8.777-17.554 17.554 0 11.703 8.777 17.554 17.554 17.554s17.554-8.777 17.554-17.554c0-8.777-8.777-17.554-17.554-17.554zM728.503 325.12c-11.703 0-17.554 8.777-17.554 17.554 0 11.703 8.777 17.554 17.554 17.554s17.554-8.777 17.554-17.554c0-8.777-8.777-17.554-17.554-17.554zM763.611 363.154c-11.703 0-17.554 8.777-17.554 17.554 0 11.703 8.777 17.554 17.554 17.554 11.703 0 17.554-8.777 17.554-17.554 2.926-8.777-5.851-17.554-17.554-17.554z" />
<glyph unicode="&#xe903;" glyph-name="trophy" d="M629.029 386.56c2.926 0 5.851 0 8.777 0 81.92 0 172.617 90.697 172.617 172.617 0 73.143-32.183 96.549-76.069 102.4-2.926 0-5.851 2.926-11.703 2.926h-418.377c-2.926 0-8.777 0-11.703-2.926-43.886-5.851-76.069-26.331-76.069-102.4 0-81.92 90.697-172.617 172.617-172.617 2.926 0 5.851 0 8.777 0 20.48-23.406 61.44-40.96 84.846-49.737l8.777-35.109c-11.703 0-23.406-8.777-23.406-23.406 0-11.703 8.777-23.406 23.406-23.406l-8.777-29.257c-40.96-8.777-73.143-8.777-93.623-35.109h-52.663c-17.554 0-29.257-14.629-29.257-29.257 0-17.554 14.629-20.48 29.257-20.48h356.937c17.554 0 29.257 2.926 29.257 20.48s-14.629 29.257-29.257 29.257h-52.663c-20.48 23.406-55.589 23.406-93.623 35.109l-8.777 29.257c11.703 0 23.406 8.777 23.406 23.406 0 11.703-8.777 23.406-23.406 23.406l8.777 35.109c17.554 8.777 61.44 26.331 81.92 49.737zM713.874 603.063c35.109-2.926 35.109-11.703 35.109-43.886 0-81.92-52.663-96.549-87.771-119.954 14.629 40.96 46.811 93.623 52.663 163.84zM275.017 559.177c-2.926 32.183 0 43.886 35.109 43.886 5.851-70.217 38.034-122.88 55.589-163.84-38.034 23.406-87.771 55.589-90.697 119.954z" />
<glyph unicode="&#xe904;" glyph-name="question" d="M541.257 728.869c52.663 0 102.4-17.554 152.137-49.737 46.811-32.183 73.143-78.994 73.143-134.583-5.851-38.034-17.554-81.92-35.109-111.177-20.48-29.257-52.663-61.44-93.623-70.217-64.366-17.554-70.217-17.554-67.291-90.697h-125.806c0 52.663 0 73.143 17.554 108.251 20.48 35.109 52.663 67.291 102.4 78.994 40.96 5.851 61.44 46.811 64.366 96.549-11.703 38.034-40.96 58.514-111.177 58.514-52.663 0-99.474-35.109-114.103-81.92h-114.103c11.703 87.771 49.737 146.286 108.251 178.469 29.257 14.629 78.994 17.554 143.36 17.554zM444.709 158.354c0-17.554 5.851-32.183 17.554-43.886s29.257-17.554 49.737-17.554c20.48 0 38.034 5.851 49.737 17.554s17.554 26.331 17.554 43.886c0 17.554-5.851 32.183-17.554 46.811-11.703 11.703-29.257 17.554-49.737 17.554s-35.109-5.851-46.811-17.554c-14.629-11.703-20.48-26.331-20.48-46.811z" />
<glyph unicode="&#xe905;" glyph-name="chat" d="M801.646 544.549h-64.366v-157.989c0-23.406-20.48-43.886-43.886-43.886h-269.166v-64.366c0-14.629 11.703-26.331 26.331-26.331h198.949l81.92-67.291c11.703-8.777 17.554-5.851 11.703 8.777l2.926 58.514c0 0-20.48 0-20.48 0h73.143c14.629 0 26.331 11.703 26.331 26.331v242.834c2.926 11.703-8.777 23.406-23.406 23.406zM684.617 409.966v263.314c0 14.629-11.703 26.331-29.257 26.331h-430.080c-14.629 0-29.257-11.703-29.257-26.331v-263.314c0-14.629 11.703-26.331 29.257-26.331h23.406c0 0 0 0 0 0l2.926-64.366c-2.926-8.777 0-14.629 2.926-14.629s5.851 2.926 11.703 5.851l90.697 73.143h301.349c11.703 0 26.331 11.703 26.331 26.331zM324.754 521.143c-14.629 0-23.406 11.703-23.406 23.406 0 14.629 11.703 23.406 23.406 23.406s23.406-11.703 23.406-23.406c0-14.629-8.777-23.406-23.406-23.406zM441.783 521.143c-14.629 0-23.406 11.703-23.406 23.406 0 14.629 11.703 23.406 23.406 23.406 14.629 0 23.406-11.703 23.406-23.406 0-14.629-11.703-23.406-23.406-23.406zM555.886 521.143c-14.629 0-23.406 11.703-23.406 23.406 0 14.629 11.703 23.406 23.406 23.406s23.406-11.703 23.406-23.406c0-14.629-11.703-23.406-23.406-23.406z" />
<glyph unicode="&#xe906;" glyph-name="atom" d="M512 647.328c246.229 0 445.557-89.893 445.557-199.328s-199.328-199.328-445.557-199.328-445.557 85.985-445.557 199.328c0 109.435 199.328 199.328 445.557 199.328zM512 686.412c-277.496 0-484.641-105.527-484.641-238.412s207.145-238.412 484.641-238.412 484.641 101.618 484.641 238.412-211.053 238.412-484.641 238.412v0zM340.031 842.748c97.71 0 242.321-117.252 343.939-297.038 121.16-211.053 144.611-429.924 50.809-484.641-15.634-7.817-31.267-11.725-50.809-11.725-97.71 0-242.321 117.252-343.939 297.038-121.16 211.053-144.611 429.924-50.809 484.641 15.634 7.817 31.267 11.725 50.809 11.725zM340.031 881.832v0c-27.359 0-50.809-3.908-70.351-15.634-117.252-66.443-101.618-300.947 35.176-539.359 109.435-191.511 261.863-316.58 379.115-316.58 27.359 0 50.809 7.817 70.351 19.542 117.252 66.443 101.618 300.947-35.176 539.359-109.435 187.603-261.863 312.672-379.115 312.672v0zM683.969 842.748c19.542 0 35.176-3.908 50.809-11.725 93.802-54.718 74.26-273.588-50.809-484.641-101.618-179.786-246.229-297.038-343.939-297.038-19.542 0-35.176 3.908-50.809 11.725-93.802 54.718-74.26 273.588 50.809 484.641 101.618 179.786 242.321 297.038 343.939 297.038zM683.969 881.832v0c-117.252 0-269.679-128.977-379.115-316.58-136.794-238.412-152.427-469.008-35.176-539.359 19.542-11.725 42.992-19.542 70.351-19.542 117.252 0 269.679 128.977 379.115 316.58 136.794 238.412 152.427 469.008 35.176 539.359-23.45 15.634-46.901 19.542-70.351 19.542v0zM480.733 533.985c70.351 23.45 132.885-42.992 109.435-117.252-7.817-27.359-27.359-50.809-54.718-58.626-70.351-23.45-132.885 42.992-109.435 117.252 11.725 27.359 31.267 46.901 54.718 58.626zM512 604.336c-11.725 0-27.359 0-39.084-3.908-50.809-15.634-85.985-54.718-101.618-105.527-31.267-105.527 42.992-203.237 140.702-203.237 11.725 0 27.359 0 39.084 3.908 50.809 15.634 85.985 54.718 101.618 105.527 27.359 105.527-46.901 203.237-140.702 203.237v0zM512 322.931c-78.168 0-136.794 78.168-109.435 164.153 11.725 35.176 39.084 62.534 70.351 74.26 11.725 3.908 27.359 7.817 39.084 7.817 78.168 0 136.794-78.168 109.435-168.061-11.725-31.267-35.176-62.534-70.351-74.26-15.634 0-27.359-3.908-39.084-3.908v0z" />
<glyph unicode="&#xe907;" glyph-name="globe" d="M485.669 702.537c-2.926 0-5.851 0-5.851 0v0c2.926 0 5.851 0 5.851 0v0zM485.669 702.537c-2.926 0-5.851 0-5.851 0v0c2.926 0 5.851 0 5.851 0v0zM512 731.794c-190.171 0-342.309-152.137-342.309-342.309s152.137-342.309 342.309-342.309 342.309 152.137 342.309 342.309-152.137 342.309-342.309 342.309zM631.954 99.84c-8.777-2.926-17.554-5.851-23.406-8.777-29.257-8.777-61.44-14.629-93.623-14.629h-2.926c-172.617 0-313.051 140.434-313.051 313.051 0 160.914 122.88 295.497 280.869 310.126 2.926 0 5.851 0 8.777 0 8.777 0 14.629 0 23.406 0 14.629 0 29.257 0 43.886-2.926 43.886-5.851 87.771-23.406 122.88-43.886v0c26.331-17.554 49.737-35.109 70.217-58.514 17.554-20.48 35.109-43.886 46.811-70.217 14.629-29.257 23.406-61.44 29.257-96.549 2.926-11.703 2.926-26.331 2.926-40.96-2.926-125.806-81.92-239.909-196.023-286.72zM485.669 702.537c-2.926 0-5.851 0-5.851 0v0c2.926 0 5.851 0 5.851 0v0zM485.669 702.537c-2.926 0-5.851 0-5.851 0v0c2.926 0 5.851 0 5.851 0v0zM830.903 439.223c0 5.851-2.926 14.629-2.926 20.48 0 2.926-2.926 5.851-2.926 11.703s-2.926 8.777-2.926 14.629c0 2.926-2.926 5.851-2.926 8.777-2.926 11.703-8.777 20.48-11.703 32.183-2.926 5.851-2.926 8.777-5.851 11.703v0c0 0 0 2.926-2.926 2.926 0 2.926-2.926 5.851-2.926 8.777 0 0 0 0-2.926 2.926-2.926 5.851-5.851 8.777-8.777 14.629 0 0 0 0 0 0s0 0 0 0c-2.926 5.851-5.851 8.777-8.777 11.703 0 2.926-2.926 5.851-5.851 5.851-2.926 2.926-5.851 8.777-8.777 11.703 0 0-2.926 2.926-2.926 2.926-14.629 14.629-29.257 29.257-46.811 43.886-2.926 2.926-5.851 2.926-8.777 5.851s-2.926 2.926-5.851 5.851c0 0-2.926 2.926-2.926 2.926v0c0 0 0 0-2.926 0v0c0 0-2.926 0-2.926 2.926 0 0-2.926 2.926-5.851 2.926 0 0 0 0-2.926 0 0 0-2.926 0-2.926 2.926-2.926 2.926-5.851 2.926-8.777 5.851-2.926 0-5.851 2.926-5.851 2.926s-2.926 0-2.926 2.926-8.777 2.926-11.703 5.851c0 0 0 0 0 0v0c0 0-2.926 0-2.926 0s-2.926 0-2.926 0c-5.851 2.926-14.629 5.851-20.48 5.851 0 0-2.926 0-2.926 0-14.629 5.851-23.406 8.777-32.183 11.703-5.851 2.926-14.629 2.926-20.48 2.926-2.926 0-2.926 0-5.851 0 0 0 0 0 0 0l-2.926-5.851-14.629-23.406c0 0-2.926-2.926-2.926-2.926s-2.926 0-2.926 0l-43.886 26.331c-2.926 0-5.851 0-5.851 0v0l-64.366-52.663c-11.703-8.777-17.554-23.406-17.554-38.034v-14.629c0-2.926 0-2.926 2.926-2.926 0 0 2.926-2.926 2.926 0l46.811 8.777-5.851-11.703c-11.703-5.851-11.703-8.777-14.629-8.777l-43.886-32.183c0 0-2.926-2.926-2.926-5.851v-26.331l-14.629-2.926c-14.629 0-23.406-14.629-23.406-29.257v-14.629c0-11.703 8.777-20.48 20.48-23.406l14.629-2.926c-14.629-5.851-26.331-20.48-26.331-35.109v-11.703l-17.554-32.183c0 0 0-2.926-2.926-5.851-2.926-5.851-2.926-8.777-5.851-14.629 0 0 0 0 0 0s0 0 0-2.926v0c0 0 0 0 0 0 0-2.926 0-8.777 0-14.629 0-2.926 0-5.851 0-11.703 0 0 0-2.926 0-2.926 0-2.926 0-5.851 2.926-11.703 0-2.926 2.926-5.851 2.926-8.777s2.926-5.851 5.851-8.777c0 0 0-2.926 0-2.926l8.777-11.703c0 0 0-2.926 2.926-2.926v0c0 0 0 0 0 0s0 0 0 0 0 0 0 0 0 0 0 0 0 0 0 0c5.851-2.926 8.777-5.851 14.629-8.777 2.926 0 2.926 0 5.851-2.926 2.926 0 5.851 0 5.851 0v0c2.926 0 5.851 0 8.777 0l11.703 2.926 61.44 11.703 17.554-20.48c11.703-14.629 26.331-23.406 43.886-32.183l5.851-2.926v-43.886c0-5.851 2.926-14.629 5.851-26.331 5.851-17.554 14.629-29.257 29.257-38.034 8.777-5.851 20.48-8.777 29.257-8.777h2.926c5.851 0 11.703 0 17.554 2.926 2.926 0 2.926 0 2.926 2.926v2.926l46.811 114.103 61.44 58.514c0 0 0 2.926 2.926 2.926l5.851 35.109c0 2.926 0 2.926 0 5.851 0 0-2.926 2.926-2.926 2.926h-14.629c-8.777 0-20.48 2.926-26.331 8.777l-81.92 105.326 20.48-5.851c8.777-2.926 14.629-8.777 20.48-14.629l49.737-67.291c2.926-5.851 11.703-5.851 14.629-2.926l32.183 23.406c2.926 2.926 2.926 2.926 5.851 5.851s2.926 5.851 5.851 5.851c0 2.926 2.926 5.851 2.926 8.777s0 5.851 0 8.777v29.257c0 0 0 2.926 0 2.926s0 0 0 2.926c-2.926 0-2.926 0-5.851 0l-11.703-2.926c-5.851-2.926-8.777 0-14.629 0 2.926 0 0 2.926 0 8.777l-5.851 20.48 67.291-20.48 29.257-8.777 5.851-2.926h2.926c0 2.926 0 8.777 0 11.703zM605.623 450.926l-8.777-5.851-49.737-17.554h-2.926l-5.851-2.926-11.703 5.851-26.331 17.554c-8.777 5.851-20.48 8.777-32.183 8.777-2.926 0-5.851 0-8.777 0l-49.737-8.777 14.629 11.703c2.926 2.926 5.851 5.851 5.851 8.777l8.777 23.406c8.777 8.777 20.48 8.777 29.257 2.926l29.257-26.331c2.926-2.926 2.926-2.926 5.851 0 2.926 0 2.926 2.926 2.926 5.851l-2.926 23.406c0 2.926 2.926 5.851 2.926 5.851s2.926 0 5.851 0l35.109-32.183c0 0 2.926-2.926 5.851 0l23.406 5.851 29.257 8.777c2.926-2.926 5.851-8.777 5.851-14.629 0-8.777-2.926-14.629-5.851-20.48zM629.029 524.069v0c-2.926-2.926-2.926-2.926 0 0l-17.554-14.629c-2.926 0-2.926-2.926-5.851-2.926h-29.257c-5.851 0-11.703 5.851-11.703 11.703s5.851 11.703 11.703 11.703h26.331l14.629 11.703c5.851 2.926 11.703 2.926 14.629-2.926 0-5.851 0-11.703-2.926-14.629zM672.914 521.143c0 0 0 0 0 0-2.926-2.926-5.851-2.926-5.851-2.926-2.926 0-5.851 0-8.777 5.851l-2.926 2.926-23.406 32.183c-2.926 5.851-2.926 11.703 2.926 14.629s11.703 2.926 14.629-2.926l26.331-38.034c2.926-2.926 2.926-5.851 2.926-8.777 0 0-2.926 0-5.851-2.926zM631.954 646.949c14.629 2.926 29.257 5.851 46.811 5.851-17.554 0-32.183-2.926-46.811-5.851zM348.16 576.731l11.703-5.851-8.777-26.331c0-5.851 2.926-11.703 8.777-11.703 0 0 2.926 0 2.926 0 5.851 0 8.777 2.926 11.703 8.777l8.777 35.109c0 5.851 0 8.777-5.851 11.703l-17.554 11.703c-5.851 2.926-11.703 2.926-14.629-2.926-5.851-11.703-2.926-17.554 2.926-20.48z" />
<glyph unicode="&#xe908;" glyph-name="beaker" d="M283.794 237.349l90.697 149.211h283.794l84.846-149.211c17.554-32.183-5.851-70.217-40.96-70.217h-377.417c-38.034 0-58.514 38.034-40.96 70.217zM699.246 152.503h-374.491c-23.406 0-43.886 11.703-52.663 32.183-11.703 20.48-11.703 43.886 0 61.44l169.691 292.571v87.771h-2.926c-26.331 0-46.811 20.48-46.811 46.811s20.48 46.811 46.811 46.811h146.286c26.331 0 46.811-20.48 46.811-46.811s-20.48-46.811-46.811-46.811v0-87.771l169.691-292.571c11.703-20.48 11.703-43.886 0-61.44-14.629-20.48-32.183-32.183-55.589-32.183zM438.857 690.834c-8.777 0-17.554-8.777-17.554-17.554s8.777-17.554 17.554-17.554h17.554c8.777 0 14.629-5.851 14.629-14.629v-105.326c0-2.926 0-5.851-2.926-5.851l-172.617-295.497c-5.851-11.703-5.851-23.406 0-32.183 5.851-11.703 17.554-17.554 29.257-17.554h374.491c11.703 0 23.406 5.851 29.257 17.554s5.851 23.406 0 32.183l-172.617 292.571c0 2.926-2.926 5.851-2.926 5.851v105.326c0 8.777 5.851 14.629 14.629 14.629h17.554c8.777 0 17.554 8.777 17.554 17.554s-5.851 20.48-17.554 20.48h-146.286z" />
<glyph unicode="&#xe909;" glyph-name="pathways" d="M465.189 597.211h-90.697c-14.629 0-26.331 14.629-26.331 32.183v49.737c0 17.554 11.703 32.183 26.331 32.183h90.697c14.629 0 26.331-14.629 26.331-32.183v-49.737c0-17.554-11.703-32.183-26.331-32.183v0zM298.423 597.211h-90.697c-14.629 0-26.331 14.629-26.331 32.183v49.737c0 17.554 11.703 32.183 26.331 32.183h90.697c14.629 0 26.331-14.629 26.331-32.183v-49.737c0-17.554-11.703-32.183-26.331-32.183v0zM816.274 597.211h-90.697c-14.629 0-26.331 14.629-26.331 32.183v49.737c0 17.554 11.703 32.183 26.331 32.183h90.697c14.629 0 26.331-14.629 26.331-32.183v-49.737c0-17.554-11.703-32.183-26.331-32.183v0zM646.583 597.211h-90.697c-14.629 0-26.331 14.629-26.331 32.183v49.737c0 17.554 11.703 32.183 26.331 32.183h90.697c14.629-2.926 26.331-14.629 26.331-32.183v-49.737c0-17.554-11.703-32.183-26.331-32.183v0zM465.189 357.303h-90.697c-14.629 0-26.331 14.629-26.331 32.183v49.737c0 17.554 11.703 32.183 26.331 32.183h35.109v43.886h-157.989c-5.851 0-11.703 5.851-11.703 14.629v43.886h26.331v-26.331h143.36v26.331h26.331v-102.4h32.183c14.629 0 26.331-14.629 26.331-32.183v-49.737c-2.926-20.48-14.629-32.183-29.257-32.183v0zM588.069 544.549v26.331h26.331v-26.331h143.36v26.331h26.331v-43.886c0-8.777-5.851-14.629-11.703-14.629h-157.989v-43.886h32.183c14.629 0 26.331-14.629 26.331-32.183v-49.737c0-17.554-11.703-32.183-26.331-32.183h-90.697c-14.629 0-26.331 14.629-26.331 32.183v49.737c0 17.554 11.703 32.183 26.331 32.183h32.183v43.886zM523.703 292.937h64.366v35.109h26.331v-49.737c0-8.777-5.851-14.629-11.703-14.629h-76.069v-55.589h29.257c14.629 0 26.331-14.629 26.331-32.183v-49.737c0-17.554-11.703-32.183-26.331-32.183h-87.771c-14.629 0-26.331 14.629-26.331 32.183v49.737c0 17.554 11.703 32.183 26.331 32.183h29.257v55.589h-76.069c-5.851 0-11.703 5.851-11.703 14.629v49.737h26.331v-35.109h61.44z" />
<glyph unicode="&#xe90a;" glyph-name="robot" d="M471.040 275.383h81.92v-73.143h-81.92v73.143zM482.743 333.897h61.44v-73.143h-61.44v73.143zM576.366 216.869c0 0-11.703-55.589 35.109-55.589 0 0-239.909 0-190.171 0s35.109 55.589 35.109 55.589h119.954zM655.36 126.171c0-23.406-11.703-40.96-23.406-40.96h-239.909c-14.629 0-23.406 17.554-23.406 40.96v0c0 23.406 11.703 40.96 23.406 40.96h239.909c14.629 0 23.406-17.554 23.406-40.96v0zM652.434 526.994h-277.943c-8.777 0-14.629-5.851-11.703-14.629l23.406-184.32c0-5.851 5.851-11.703 11.703-17.554h231.131c5.851 5.851 11.703 11.703 11.703 17.554l23.406 187.246c0 5.851-5.851 11.703-11.703 11.703zM512 354.377c-38.034 0-70.217 32.183-70.217 73.143 0 38.034 32.183 70.217 70.217 70.217 40.96 0 73.143-32.183 73.143-70.217 0-40.96-32.183-73.143-73.143-73.143zM327.68 228.571l-43.886-5.851c-2.926 0-8.777 2.926-8.777 5.851l-5.851 29.257c0 2.926 2.926 8.777 5.851 8.777l43.886 5.851c2.926 0 8.777-2.926 8.777-5.851l5.851-29.257c2.926-5.851 0-8.777-5.851-8.777zM696.32 228.571l43.886-5.851c2.926 0 8.777 2.926 8.777 5.851l5.851 29.257c0 2.926-2.926 8.777-5.851 8.777l-43.886 5.851c-2.926 0-8.777-2.926-8.777-5.851l-5.851-29.257c0-5.851 2.926-8.777 5.851-8.777zM327.68 471.406l8.777-52.663c0-5.851-2.926-8.777-5.851-11.703l-38.034-14.629 26.331-172.617c2.926-11.703 5.851-17.554-5.851-23.406-20.48-5.851-29.257-5.851-43.886 17.554-61.44 96.549-111.177 263.314-111.177 263.314-2.926 8.777 0 20.48 2.926 29.257 32.183 38.034 61.44 46.811 61.44 46.811 14.629 5.851 26.331 2.926 29.257-11.703l23.406-78.994 38.034 14.629c5.851 2.926 11.703 0 14.629-5.851zM696.32 471.406l-8.777-52.663c0-5.851 2.926-8.777 5.851-11.703l35.109-14.629-26.331-169.691c-2.926-11.703-5.851-17.554 5.851-23.406 20.48-5.851 29.257-5.851 43.886 17.554 61.44 96.549 111.177 263.314 111.177 263.314 2.926 8.777 0 20.48-2.926 29.257-32.183 38.034-61.44 46.811-61.44 46.811-14.629 5.851-26.331 2.926-29.257-11.703l-20.48-81.92-38.034 14.629c-5.851 2.926-11.703 0-14.629-5.851zM716.8 687.909c-55.589 23.406-146.286 32.183-207.726 32.183-17.554 0-32.183 0-40.96-2.926 0 0 0 0 0 0-55.589-2.926-119.954-14.629-157.989-29.257-14.629-5.851-26.331-20.48-23.406-35.109 5.851-32.183 17.554-67.291 23.406-87.771 2.926-8.777 11.703-14.629 20.48-14.629h5.851c2.926 0 2.926 0 5.851 0h339.383c2.926 0 2.926 0 5.851 0h5.851c8.777 0 17.554 5.851 20.48 14.629 5.851 20.48 20.48 55.589 23.406 87.771 5.851 14.629-5.851 29.257-20.48 35.109zM473.966 667.429v0 0h14.629c5.851 0 14.629 0 20.48 0 52.663 0 128.731-8.777 175.543-26.331-2.926-14.629-8.777-32.183-14.629-52.663h-313.051c-5.851 20.48-11.703 38.034-14.629 52.663 26.331 11.703 76.069 20.48 131.657 26.331zM512 486.034c-32.183 0-61.44-26.331-61.44-61.44s26.331-61.44 61.44-61.44c35.109 0 61.44 26.331 61.44 61.44s-26.331 61.44-61.44 61.44zM523.703 430.446c-5.851 0-11.703 5.851-11.703 11.703s5.851 11.703 11.703 11.703c5.851 0 11.703-5.851 11.703-11.703s-5.851-11.703-11.703-11.703zM512 456.777c-17.554 0-32.183-14.629-32.183-32.183s14.629-32.183 32.183-32.183c17.554 0 32.183 14.629 32.183 32.183s-14.629 32.183-32.183 32.183zM523.703 430.446c-5.851 0-11.703 5.851-11.703 11.703s5.851 11.703 11.703 11.703c5.851 0 11.703-5.851 11.703-11.703s-5.851-11.703-11.703-11.703z" />
<glyph unicode="&#xe90b;" glyph-name="microscope" d="M515.908 33.71v46.901c148.519 0 265.771 101.618 265.771 226.687 0 78.168-50.809 156.336-132.885 195.42l27.359 39.084c97.71-46.901 160.244-140.702 160.244-234.504 0-152.427-144.611-273.588-320.489-273.588zM489.693 389.21l41.526-11.131-24.285-90.603-41.526 11.131 24.285 90.603zM527.634 369.832h42.992v-109.435h-42.992v109.435zM434.428 285.304l-37.231 21.5 54.729 94.771 37.231-21.5-54.729-94.771zM668.336 666.87l-19.542-66.443-7.817-35.176c-3.908 0-7.817 0-11.725 0-19.542 0-35.176-15.634-35.176-35.176 0-15.634 11.725-31.267 27.359-35.176l-7.817-35.176-15.634-54.718-7.817-23.45-144.611 39.084 7.817 23.45 70.351 261.863 144.611-39.084zM433.56 451.597l181.206-48.552-8.092-30.201-181.206 48.552 8.092 30.201zM573.572 850.687l120.804-32.368-8.092-30.201-120.804 32.368 8.092 30.201zM439.894 408.759l147.23-39.448-6.069-22.651-147.23 39.448 6.069 22.651zM572.862 803.115l94.378-25.297-25.297-94.378-94.378 25.297 25.297 94.378zM648.794 600.427c-7.817 0-11.725 3.908-19.542 3.908-39.084 0-70.351-31.267-70.351-70.351 0-35.176 23.45-62.534 54.718-70.351 3.908 0 11.725-3.908 19.542-3.908 39.084 0 70.351 31.267 70.351 70.351-3.908 35.176-23.45 62.534-54.718 70.351zM629.252 494.901c-3.908 0-3.908 0-7.817 0-15.634 3.908-27.359 19.542-27.359 35.176 0 19.542 15.634 35.176 35.176 35.176 3.908 0 7.817 0 11.725 0 15.634-3.908 27.359-19.542 27.359-35.176-3.908-19.542-19.542-35.176-39.084-35.176zM316.58 221.313h316.58v-54.718h-316.58v54.718zM359.573 182.229h226.687v-70.351h-226.687v70.351zM386.931 111.878h175.878v-109.435h-175.878v109.435zM261.863-32.733c0 27.359 31.267 46.901 66.443 46.901h285.313c35.176 0 66.443-19.542 66.443-46.901h-418.198z" />
<glyph unicode="&#xe90c;" glyph-name="microscopePerson" d="M297.038 162.687v35.176c109.435 0 195.42 74.26 195.42 164.153 0 58.626-35.176 113.344-97.71 144.611l19.542 31.267c70.351-35.176 117.252-101.618 117.252-171.969 0-113.344-105.527-203.237-234.504-203.237zM275.546 423.966l30.201-8.095-18.214-67.952-30.201 8.095 18.214 67.952zM304.855 408.916h31.267v-78.168h-31.267v78.168zM235.546 346.78l-27.077 15.637 39.092 67.693 27.077-15.637-39.092-67.693zM406.473 627.786l-11.725-50.809-7.817-23.45c-3.908 0-3.908 0-7.817 0-15.634 0-27.359-11.725-27.359-27.359 0-11.725 7.817-23.45 19.542-23.45l-7.817-23.45-11.725-39.084v-23.45l-105.527 27.359 3.908 19.542 50.809 191.511 105.527-27.359zM236.326 468.929l132.129-35.402-6.069-22.651-132.129 35.402 6.069 22.651zM340.95 760.002l86.828-23.264-6.069-22.651-86.828 23.264 6.069 22.651zM242.315 434.457l105.703-28.322-4.046-15.1-105.703 28.322 4.046 15.1zM338.486 725.901l67.952-18.214-18.214-67.952-67.952 18.214 18.214 67.952zM394.748 576.977c-3.908 0-7.817 3.908-15.634 3.908-27.359 0-50.809-23.45-50.809-50.809 0-23.45 15.634-46.901 39.084-50.809 3.908 0 7.817 0 11.725 0 27.359 0 50.809 23.45 50.809 50.809 3.908 19.542-11.725 42.992-35.176 46.901zM379.115 502.718c-3.908 0-3.908 0-7.817 0-11.725 3.908-19.542 11.725-19.542 23.45 0 15.634 11.725 27.359 27.359 27.359 3.908 0 3.908 0 7.817 0 11.725-3.908 19.542-11.725 19.542-23.45 0-15.634-11.725-27.359-27.359-27.359zM148.519 299.481h230.595v-27.359h-230.595v27.359zM179.786 272.122h168.061v-50.809h-168.061v50.809zM199.328 221.313h128.977v-82.076h-128.977v82.076zM109.435 111.878c0 19.542 23.45 35.176 50.809 35.176h207.145c27.359 0 50.809-15.634 50.809-35.176h-308.763zM707.42 580.885v0c3.908 0 7.817 0 7.817 0s-3.908 0-7.817 0zM707.42 584.794l-7.817 3.908-3.908-3.908c0 0 0 0 3.908 0s7.817-3.908 7.817 0v0zM836.397 643.42v0c-3.908 3.908-7.817 7.817-11.725 7.817-11.725 7.817-27.359 15.634-39.084 19.542-3.908 0-7.817 3.908-15.634 3.908v0c-3.908-7.817-7.817-11.725-15.634-15.634-11.725-19.542-39.084-23.45-66.443-11.725-3.908 0-3.908 3.908-7.817 3.908 0 0 0 0 0 0-7.817-3.908-15.634-11.725-19.542-19.542 0 0-3.908-3.908-3.908-7.817s-3.908-3.908-7.817-7.817c0 0-3.908-3.908-3.908-3.908s-3.908-3.908-3.908-3.908c0 0 0-3.908 0-3.908 11.725-7.817 23.45-11.725 35.176-19.542 3.908 0 3.908 0 7.817 0 0 0 0 0 0 0s0 0 3.908 0 7.817 0 11.725 0c0 0 0 0 0 0v3.908c0 0 0 0 3.908 0s7.817 0 11.725 0v0c3.908 0 3.908 0 7.817 0 0 0 0 0 0 0 42.992-3.908 82.076 15.634 105.527 46.901l-42.992-113.344-82.076 46.901-54.718-62.534-15.634 85.985c-23.45-42.992-35.176-93.802-35.176-152.427 0-11.725 0-23.45 0-39.084v-312.672h312.672v312.672c0 11.725 0 23.45 0 39.084 0 85.985-31.267 164.153-74.26 203.237zM707.42 584.794l-7.817 3.908-3.908-3.908c0 0 0 0 3.908 0s7.817-3.908 7.817 0v0zM617.527 655.145c3.908 3.908 3.908 7.817 3.908 7.817s0 0 0 0h7.817c0 0 0-3.908 0-3.908 0-3.908-3.908-7.817-7.817-11.725 0-3.908-3.908-3.908-3.908-3.908-3.908-3.908-7.817-3.908-11.725-7.817v0c-3.908 0-7.817-3.908-15.634-3.908-11.725 0-23.45 0-31.267 7.817-27.359 11.725-42.992 42.992-39.084 66.443 0 0 0 3.908 0 3.908 7.817 23.45 31.267 31.267 54.718 27.359 3.908 0 7.817 0 7.817-3.908 3.908 0 3.908 0 3.908-3.908 19.542-7.817 31.267-23.45 39.084-42.992h-7.817c-3.908 15.634-15.634 27.359-31.267 35.176-3.908 0-3.908 0-7.817 3.908-3.908 0-3.908 0-7.817 3.908-23.45 3.908-42.992-3.908-46.901-23.45 0 0 0-3.908 0-3.908 0-15.634 11.725-42.992 39.084-54.718 7.817-3.908 19.542-7.817 27.359-3.908 3.908 0 11.725 0 15.634 3.908 0 0 0 0 0 0 3.908 0 7.817 3.908 11.725 7.817v0zM719.145 877.924c-74.26 0-136.794-58.626-140.702-136.794 0-3.908 0-3.908 0-7.817 3.908 0 3.908 0 7.817-3.908 0 0 3.908 0 7.817-3.908 15.634-7.817 27.359-23.45 31.267-35.176h27.359c0 7.817 0 11.725 3.908 19.542 7.817 23.45 39.084 31.267 70.351 19.542s46.901-39.084 35.176-62.534v0c0-3.908-3.908-3.908-3.908-7.817-11.725-19.542-39.084-23.45-66.443-11.725-3.908 0-3.908 3.908-7.817 3.908 0 0 0 0 0 0-7.817 3.908-11.725 7.817-15.634 15.634h-39.084c0 0 0 0 0 0 0-3.908-3.908-7.817-3.908-7.817v-3.908c-11.725-3.908-15.634-7.817-23.45-7.817 0 0 0 0 0 0s3.908-3.908 3.908-3.908c3.908-7.817 11.725-11.725 15.634-19.542v0c3.908-3.908 7.817-7.817 15.634-11.725 0 0 0 0 3.908 0 11.725-7.817 23.45-15.634 35.176-19.542 3.908 0 3.908 0 7.817-3.908v0c3.908 0 7.817 0 11.725-3.908 3.908 0 7.817 0 11.725 0s7.817 0 11.725 0c23.45 0 42.992 3.908 62.534 15.634 0 0 0 0 0 0 15.634 7.817 27.359 19.542 39.084 31.267 3.908 3.908 3.908 3.908 3.908 7.817 3.908 3.908 3.908 7.817 7.817 11.725 15.634 19.542 27.359 46.901 27.359 78.168 0 82.076-62.534 148.519-140.702 148.519zM699.603 588.702v0l-3.908-3.908v-3.908c0 0 0 0 0 0-3.908 0-7.817 0-11.725 0 0 0 0 0-3.908 0 0 0 0 0 0 0-3.908 0-3.908 0-7.817 0-11.725 3.908-23.45 11.725-35.176 19.542l-3.908 15.634v11.725l-3.908 19.542v19.542l66.443-66.443 3.908-11.725zM820.763 717.679v0c-7.817 35.176-35.176 66.443-66.443 82.076-7.817 3.908-11.725 3.908-19.542 7.817 0 0-3.908 0-3.908 0-19.542 3.908-39.084 3.908-58.626 0-15.634-3.908-27.359-7.817-39.084-15.634-19.542-11.725-35.176-31.267-42.992-54.718 0 0 0-3.908-3.908-3.908 0 0 3.908 0 7.817-3.908 15.634-7.817 27.359-23.45 31.267-35.176h27.359c0 7.817 0 11.725 3.908 19.542 7.817 23.45 39.084 31.267 70.351 19.542s46.901-39.084 35.176-62.534v0c-7.817-23.45-39.084-31.267-70.351-19.542-3.908 0-3.908 3.908-7.817 3.908-7.817 3.908-11.725 7.817-19.542 15.634h-39.084c0 0 0 0 0 0 0-3.908-3.908-7.817-3.908-7.817v-3.908c-3.908-3.908-7.817-7.817-11.725-7.817 0 0 0 0 0 0-3.908 0-7.817-3.908-15.634-3.908 0-3.908 3.908-3.908 3.908-7.817s3.908-3.908 3.908-7.817 7.817-11.725 11.725-15.634c3.908-3.908 3.908-3.908 7.817-7.817s7.817-3.908 11.725-7.817c11.725-7.817 23.45-11.725 35.176-19.542 3.908 0 3.908 0 7.817 0 0 0 0 0 0 0s0 0 3.908 0 7.817 0 11.725 0c0 0 0 0 0 0 3.908 0 11.725 0 15.634 0s3.908 0 7.817 0c0 0 0 0 0 0 27.359 0 50.809 11.725 70.351 27.359 0 0 0 0 0 0 7.817 3.908 15.634 11.725 19.542 19.542 0 0 0 0 0 0s0 0 0 0 3.908 3.908 3.908 7.817c3.908 3.908 3.908 7.817 7.817 11.725 0 3.908 3.908 7.817 3.908 7.817-3.908-3.908 0 3.908 0 7.817 3.908 19.542 3.908 39.084 0 54.718z" />
<glyph unicode="&#xe90d;" glyph-name="telescope" d="M526.629 494.811v-43.886c-2.926 11.703-11.703 17.554-23.406 17.554-5.851 0-8.777-2.926-14.629-2.926-5.851-2.926-8.777-8.777-8.777-14.629v46.811c0 11.703 11.703 17.554 23.406 17.554 11.703-2.926 23.406-11.703 23.406-20.48zM523.703 436.297c0 0 0 2.926 0 2.926v-687.543c0-5.851-2.926-11.703-5.851-14.629s-8.777-5.851-17.554-5.851c-5.851 0-11.703 2.926-17.554 5.851-2.926 2.926-5.851 8.777-5.851 14.629v687.543c2.926-11.703 11.703-17.554 23.406-17.554 11.703-2.926 20.48 5.851 23.406 14.629zM671.351 309.022c-11.922 10.907-5.671 37.144 13.962 58.603s45.212 30.013 57.133 19.106c11.922-10.907 5.671-37.144-13.962-58.603s-45.212-30.013-57.133-19.106zM741.318 385.929l-70.81-77.973-23.825 21.637 70.81 77.973 23.825-21.637zM648.19 330.273c-11.922 10.907-5.671 37.144 13.962 58.603s45.212 30.013 57.133 19.106c11.922-10.907 5.671-37.144-13.962-58.603s-45.212-30.013-57.133-19.106zM662.351 348.661c-5.961 5.453-2.835 18.572 6.981 29.302s22.606 15.006 28.567 9.553c5.961-5.453 2.835-18.572-6.981-29.302s-22.606-15.006-28.567-9.553zM699.246 389.486l-35.109-40.96-61.44 55.589-29.257 26.331-5.851 5.851 35.109 40.96 8.777-8.777 26.331-23.406zM548.341 414.568c-10.729 9.816-2.628 36.136 18.095 58.787s46.22 33.056 56.95 23.24c10.729-9.816 2.628-36.136-18.095-58.787s-46.22-33.056-56.95-23.24zM409.6 720.091c-5.851-2.926-14.629-2.926-20.48-8.777l14.629 14.629 5.851-5.851zM301.349 614.766l11.703 14.629c-2.926-2.926-2.926-5.851-2.926-11.703 0-2.926-2.926-5.851-2.926-8.777l-5.851 5.851zM623.177 497.737v0l-20.48-23.406-35.109-38.034-17.554-20.48-5.851 2.926-17.554 14.629c0 0 0 2.926 0 2.926v8.777c-2.926 11.703-11.703 17.554-23.406 17.554-5.851 0-8.777-2.926-14.629-2.926l-8.777 8.777-8.777 5.851-11.703 11.703-8.777 5.851-29.257 23.406-5.851 5.851-64.366 52.663-11.703 8.777c8.777 2.926 20.48 8.777 35.109 17.554 8.777 5.851 17.554 14.629 26.331 23.406 17.554 17.554 29.257 40.96 35.109 58.514 0 2.926 0 5.851 2.926 5.851l73.143-73.143 26.331-29.257 8.777-8.777 76.069-78.994zM393.39 496.015c-22.651 20.723-10.951 70.381 26.132 110.914s85.507 56.593 108.158 35.87c22.651-20.723 10.951-70.381-26.132-110.914s-85.507-56.593-108.158-35.87zM529.554 644.023v0l-23.406-26.331-87.771-96.549-23.406-26.331-5.851 5.851-76.069 70.217-8.777 8.777c0 0 0 0 0 0s0 0 0 0l-2.926 2.926 8.777 8.777c0-2.926 2.926-2.926 2.926-5.851 2.926-2.926 5.851-2.926 11.703-2.926 2.926 0 8.777 0 11.703 2.926 8.777 2.926 20.48 8.777 35.109 17.554 8.777 5.851 17.554 14.629 26.331 23.406 17.554 17.554 29.257 40.96 35.109 58.514 0 2.926 0 5.851 2.926 5.851 2.926 11.703 0 20.48-2.926 23.406s-2.926 2.926-5.851 2.926l8.777 8.777h2.926c0 0 0 0 0 0s0 0 0 0l11.703-8.777 78.994-73.143zM450.56 714.24c-2.926 5.851-2.926 8.777-8.777 11.703-5.851 5.851-14.629 8.777-23.406 8.777-23.406 0-58.514-17.554-84.846-49.737-38.034-40.96-52.663-93.623-32.183-111.177 2.926-2.926 8.777-5.851 11.703-5.851s5.851 0 8.777 0c8.777 0 17.554 2.926 26.331 5.851 17.554 8.777 40.96 23.406 58.514 43.886s32.183 43.886 38.034 61.44c8.777 14.629 8.777 26.331 5.851 35.109zM433.006 684.983c-5.851-17.554-17.554-40.96-35.109-58.514-8.777-8.777-17.554-17.554-26.331-23.406-11.703-8.777-23.406-14.629-35.109-17.554-5.851 0-8.777-2.926-11.703-2.926-5.851 0-8.777 0-11.703 2.926s-2.926 2.926-2.926 5.851-2.926 8.777 0 14.629c0 2.926 0 5.851 2.926 8.777 0 2.926 2.926 5.851 2.926 11.703 5.851 14.629 17.554 32.183 32.183 46.811 5.851 5.851 11.703 11.703 17.554 14.629 8.777 8.777 17.554 14.629 26.331 17.554s14.629 5.851 20.48 8.777c2.926 0 5.851 0 8.777 0s2.926 0 5.851 0 5.851-2.926 5.851-2.926c5.851-2.926 5.851-11.703 2.926-23.406 0 2.926 0 0-2.926-2.926zM550.034 450.926v0c-2.926 14.629-11.703 29.257-23.406 35.109-5.851 2.926-14.629 5.851-23.406 5.851s-17.554-2.926-23.406-5.851c-2.926-2.926-5.851-2.926-8.777-5.851-8.777-8.777-14.629-20.48-14.629-35.109 0-17.554 8.777-32.183 23.406-40.96 5.851-2.926 14.629-5.851 23.406-5.851s17.554 2.926 23.406 5.851c8.777 2.926 14.629 8.777 17.554 17.554 0 0 0 2.926 2.926 2.926 2.926 5.851 5.851 14.629 5.851 20.48-2.926 0-2.926 2.926-2.926 5.851zM503.223 418.743c-11.703 0-20.48 8.777-23.406 17.554v8.777c0 5.851 5.851 11.703 8.777 14.629s8.777 2.926 14.629 2.926 20.48-8.777 23.406-17.554v-8.777c0 0 0-2.926 0-2.926-5.851-5.851-14.629-14.629-23.406-14.629zM479.817 445.074c0 2.926 0 2.926 0 5.851v-8.777c0 0 0 0 0 2.926zM526.629 445.074c0-2.926 0-2.926 0-5.851v8.777c0 0 0-2.926 0-2.926z" />
<glyph unicode="&#xe90e;" glyph-name="telescopePerson" d="M795.794 190.537c0-8.777 0-17.554 0-26.331v-216.503h-213.577v216.503c0 8.777 0 17.554 0 26.331 0 43.886 8.777 78.994 26.331 108.251l11.703-58.514 35.109 43.886 49.737-43.886 38.034 81.92c0 0-5.851-5.851-5.851-5.851l-35.109-61.44-46.811 32.183c-2.926 0-5.851 0-8.777 0 0 0 0 0 0 0v0l-29.257-35.109-11.703 49.737c0 2.926 2.926 2.926 2.926 5.851 2.926 5.851 5.851 8.777 11.703 14.629v0c0 0 0 2.926 2.926 2.926 17.554 20.48 38.034 29.257 61.44 29.257 20.48 0 38.034-8.777 55.589-23.406 2.926 0 2.926-2.926 5.851-2.926 29.257-29.257 49.737-81.92 49.737-137.509zM599.771 395.337c-2.926 0-2.926-2.926-5.851-2.926s-5.851 0-8.777 0c-14.629-2.926-26.331 2.926-32.183 14.629 0 0 0 2.926 0 2.926-2.926 14.629 8.777 29.257 26.331 38.034 11.703 5.851 23.406 5.851 32.183 2.926 2.926 0 5.851-2.926 8.777-5.851s2.926-2.926 5.851-5.851c0 0 0-2.926 2.926-2.926 0 0 0 0 0 0h5.851c0 0 0 2.926 0 2.926s0 2.926-2.926 2.926c0 2.926-2.926 5.851-5.851 5.851-2.926 2.926-5.851 2.926-8.777 5.851-8.777 2.926-23.406 2.926-35.109-2.926-20.48-8.777-32.183-26.331-29.257-43.886 0 0 0-2.926 0-2.926 5.851-11.703 20.48-17.554 35.109-17.554 2.926 0 5.851 0 8.777 0s5.851 2.926 8.777 2.926c14.629 5.851 23.406 14.629 26.331 26.331h-5.851c-5.851-5.851-14.629-14.629-26.331-20.48zM681.691 471.406c-23.406 0-43.886-8.777-58.514-23.406 0 0-2.926-2.926-2.926-2.926 2.926-2.926 2.926-2.926 5.851-5.851 0 0 0-2.926 2.926-2.926 0 0 0 0 0 0h38.034c2.926 5.851 11.703 8.777 17.554 11.703 0 0 2.926 0 2.926 0s0 0 0 0c17.554 5.851 38.034 0 43.886-11.703 2.926-2.926 2.926-8.777 0-14.629-2.926-11.703-11.703-23.406-26.331-26.331-20.48-8.777-40.96-2.926-46.811 11.703-2.926 2.926-2.926 8.777 0 11.703h-29.257c-2.926-8.777-11.703-17.554-23.406-23.406-2.926 0-2.926-2.926-5.851-2.926 0 0 0-2.926 0-2.926 0-2.926 0-5.851 0-5.851v-2.926c0-2.926 0-5.851 0-11.703 2.926-17.554 8.777-32.183 17.554-46.811v0c2.926-5.851 5.851-8.777 11.703-11.703 2.926-2.926 2.926-2.926 5.851-5.851v0c5.851-5.851 11.703-8.777 20.48-11.703 2.926 0 2.926-2.926 5.851-2.926v0c0 0 0 0 0 0v0c5.851-2.926 11.703-2.926 20.48-2.926v0c2.926 0 5.851 0 5.851 0 14.629 0 29.257 2.926 43.886 11.703 2.926 2.926 5.851 2.926 8.777 5.851 0 0 0 0 0 0 5.851 2.926 8.777 5.851 11.703 11.703 14.629 17.554 23.406 38.034 23.406 64.366-5.851 49.737-46.811 90.697-93.623 90.697zM734.354 325.12v-5.851l-32.183-64.366-46.811 32.183-5.851 5.851-8.777 5.851-2.926 2.926 2.926 2.926h8.777l84.846 20.48zM649.509 292.937v0l-2.926-2.926v-2.926l-29.257-35.109-8.777 52.663-2.926 8.777-5.851 29.257-2.926 5.851 26.331-26.331 2.926-5.851 14.629-11.703 2.926-5.851zM626.103 436.297c0 0 0 2.926-2.926 2.926 0 0 2.926 2.926 2.926 2.926 17.554 8.777 35.109 11.703 55.589 5.851 0 0-2.926 0-2.926 0-8.777-2.926-14.629-5.851-17.554-11.703h-35.109c0 0 0 0 0 0zM748.983 351.451c-2.926-5.851-2.926-11.703-5.851-17.554 0-2.926-2.926-2.926-2.926-5.851v0c0-2.926-2.926-2.926-2.926-2.926-2.926-2.926-5.851-8.777-11.703-11.703-14.629-17.554-32.183-26.331-52.663-26.331v0c-5.851 0-11.703 0-17.554 0v0c-2.926 0-5.851 0-8.777 0 0 0 0 0 0 0s-2.926 0-2.926 0c-11.703 2.926-23.406 8.777-32.183 17.554-2.926 2.926-2.926 2.926-5.851 5.851 0 0-2.926 2.926-2.926 2.926-14.629 17.554-23.406 40.96-20.48 64.366 0 2.926 0 5.851 0 8.777v0c0 0 0 2.926 0 2.926 2.926 0 5.851 0 8.777 0s2.926 0 5.851 2.926c11.703 5.851 20.48 14.629 23.406 23.406h29.257c0-2.926 0-8.777 0-11.703 5.851-14.629 26.331-20.48 46.811-11.703 14.629 5.851 23.406 17.554 26.331 26.331 2.926-2.926 2.926-5.851 5.851-8.777v0c20.48-14.629 23.406-35.109 20.48-58.514zM374.491 585.509v-35.109c-2.926 8.777-8.777 14.629-17.554 14.629-2.926 0-8.777 0-11.703-2.926s-5.851-5.851-8.777-11.703v35.109c0 8.777 8.777 14.629 17.554 14.629s20.48-5.851 20.48-14.629zM374.491 538.697c0 0 0 2.926 0 2.926v-538.331c0-2.926-2.926-8.777-5.851-11.703s-8.777-5.851-11.703-5.851c-5.851 0-8.777 2.926-11.703 5.851s-5.851 5.851-5.851 11.703v538.331c2.926-8.777 8.777-14.629 17.554-14.629s14.629 5.851 17.554 11.703zM490.556 440.206c-9.537 8.725-4.89 29.329 10.379 46.019s35.379 23.147 44.917 14.421c9.537-8.725 4.89-29.329-10.379-46.019s-35.379-23.147-44.917-14.421zM544.573 499.839l-55.075-60.645-17.327 15.736 55.075 60.645 17.327-15.736zM470.792 457.248c-9.537 8.725-4.89 29.329 10.379 46.019s35.379 23.147 44.917 14.421c9.537-8.725 4.89-29.329-10.379-46.019s-35.379-23.147-44.917-14.421zM481.779 471.541c-4.769 4.363-2.445 14.664 5.19 23.010s17.69 11.573 22.458 7.211c4.769-4.363 2.445-14.664-5.19-23.010s-17.69-11.573-22.458-7.211zM512 500.663l-29.257-29.257-46.811 43.886-23.406 20.48-5.851 2.926 29.257 32.183 5.851-5.851 20.48-17.554zM392.867 521.757c-8.345 7.635-1.848 28.321 14.513 46.203s36.388 26.19 44.733 18.555c8.345-7.635 1.848-28.321-14.513-46.203s-36.388-26.19-44.733-18.555zM283.794 761.051c-2.926 0-8.777-2.926-14.629-5.851l11.703 11.703 2.926-5.851zM198.949 679.131l11.703 11.703c0-2.926-2.926-5.851-2.926-8.777-2.926-2.926-2.926-5.851-2.926-8.777l-5.851 5.851zM450.56 588.434v0l-14.629-17.554-29.257-32.183-14.629-17.554-5.851 2.926-14.629 11.703c0 0 0 2.926 0 2.926v11.703c-2.926 8.777-8.777 14.629-17.554 14.629-2.926 0-8.777 0-11.703-2.926l-8.777 5.851-5.851 5.851-5.851 8.777-5.851 5.851-23.406 17.554-2.926 2.926-23.406 20.48-26.331 20.48-11.703 11.703c8.777 2.926 17.554 5.851 26.331 14.629 8.777 0 14.629 5.851 20.48 11.703 14.629 14.629 23.406 32.183 26.331 46.811 0 2.926 0 2.926 0 5.851l8.777-8.777v-2.926l46.811-46.811 20.48-23.406 5.851-5.851 67.291-64.366zM270.136 586.885c-17.882 16.36-8.506 55.717 20.942 87.905s67.818 45.019 85.7 28.659c17.882-16.36 8.506-55.717-20.942-87.905s-67.818-45.019-85.7-28.659zM380.343 702.537v0l-17.554-20.48-70.217-76.069-17.554-20.48-2.926 2.926-58.514 52.663-8.777 5.851c0 0 0 0 0 0s0 0 0 0l-2.926 2.926 2.926 11.703c0-2.926 2.926-2.926 2.926-5.851 2.926-2.926 5.851-2.926 8.777-2.926s5.851 0 8.777 2.926c8.777 2.926 17.554 5.851 26.331 14.629 11.703 5.851 17.554 11.703 23.406 17.554 14.629 14.629 23.406 32.183 26.331 46.811 0 2.926 0 2.926 0 5.851 2.926 8.777 0 17.554-2.926 20.48 0 0-2.926 2.926-5.851 2.926l5.851 8.777 2.926-2.926c0 0 0 0 0 0s0 0 0 0l8.777-5.851 70.217-61.44zM315.977 758.126c0 2.926-2.926 5.851-5.851 8.777-5.851 2.926-11.703 5.851-17.554 5.851-20.48 0-46.811-14.629-67.291-38.034-29.257-32.183-40.96-73.143-23.406-87.771 2.926-2.926 5.851-5.851 8.777-5.851s5.851 0 8.777 0 14.629 2.926 20.48 5.851 32.183 17.554 46.811 35.109c14.629 14.629 26.331 32.183 29.257 49.737 2.926 8.777 2.926 17.554 0 26.331zM304.274 734.72c-2.926-14.629-14.629-32.183-26.331-46.811-8.777-5.851-14.629-11.703-23.406-17.554s-20.48-11.703-26.331-14.629c-2.926 0-5.851-2.926-8.777-2.926-5.851 0-8.777 0-8.777 2.926 0 0-2.926 2.926-2.926 5.851s0 8.777 0 11.703c0 2.926 0 5.851 2.926 8.777 0 2.926 2.926 5.851 2.926 8.777 0 11.703 8.777 26.331 20.48 38.034 5.851 5.851 8.777 8.777 11.703 11.703 8.777 5.851 14.629 11.703 23.406 14.629 5.851 2.926 11.703 5.851 17.554 5.851 2.926 0 5.851 0 8.777 0 0 0 2.926 0 2.926 0 2.926 0 5.851 0 5.851-2.926 2.926-2.926 5.851-11.703 2.926-20.48-2.926 0-2.926 0-2.926-2.926zM392.046 550.4v0c0 11.703-8.777 23.406-17.554 29.257-5.851 2.926-11.703 5.851-17.554 5.851s-11.703-2.926-17.554-5.851c-2.926 0-5.851-2.926-5.851-5.851-8.777-5.851-11.703-17.554-11.703-26.331 0-14.629 8.777-26.331 20.48-32.183 5.851-2.926 11.703-5.851 17.554-5.851s11.703 2.926 17.554 5.851c5.851 2.926 11.703 8.777 14.629 14.629 0 0 0 2.926 0 2.926 2.926 5.851 2.926 11.703 2.926 17.554 0-2.926 0-2.926-2.926 0zM356.937 526.994c-8.777 0-17.554 5.851-17.554 14.629v8.777c0 5.851 2.926 8.777 8.777 11.703 2.926 2.926 5.851 2.926 11.703 2.926 8.777 0 17.554-5.851 17.554-14.629v-8.777c0 0 0-2.926 0-2.926-5.851-5.851-11.703-11.703-20.48-11.703z" />
</font></defs></svg>